%YAML 1.1
%TAG !u! tag:unity3d.com,2011:
--- !u!1 &196694
GameObject:
  m_ObjectHideFlags: 0
  m_PrefabParentObject: {fileID: 0}
  m_PrefabInternal: {fileID: 100100000}
  serializedVersion: 4
  m_Component:
  - 4: {fileID: 419700}
  - 212: {fileID: 21256432}
  - 50: {fileID: 5085672}
  - 61: {fileID: 6186622}
  - 114: {fileID: 11455220}
  - 114: {fileID: 11481124}
  m_Layer: 10
  m_Name: Terrified Enemy
  m_TagString: ENEMY
  m_Icon: {fileID: 0}
  m_NavMeshLayer: 0
  m_StaticEditorFlags: 0
  m_IsActive: 1
--- !u!4 &419700
Transform:
  m_ObjectHideFlags: 1
  m_PrefabParentObject: {fileID: 0}
  m_PrefabInternal: {fileID: 100100000}
  m_GameObject: {fileID: 196694}
  m_LocalRotation: {x: 0, y: 0, z: 0, w: 1}
  m_LocalPosition: {x: 0, y: 0, z: 0}
  m_LocalScale: {x: 1.5, y: 1.5, z: 1}
  m_Children: []
  m_Father: {fileID: 0}
  m_RootOrder: 0
--- !u!50 &5085672
Rigidbody2D:
  serializedVersion: 2
  m_ObjectHideFlags: 1
  m_PrefabParentObject: {fileID: 0}
  m_PrefabInternal: {fileID: 100100000}
  m_GameObject: {fileID: 196694}
  m_UseAutoMass: 0
  m_Mass: 1
  m_LinearDrag: 0
  m_AngularDrag: 0
  m_GravityScale: 0
  m_IsKinematic: 0
  m_Interpolate: 0
  m_SleepingMode: 1
  m_CollisionDetection: 0
  m_Constraints: 0
--- !u!61 &6186622
BoxCollider2D:
  m_ObjectHideFlags: 1
  m_PrefabParentObject: {fileID: 0}
  m_PrefabInternal: {fileID: 100100000}
  m_GameObject: {fileID: 196694}
  m_Enabled: 1
  m_Density: 1
  m_Material: {fileID: 0}
  m_IsTrigger: 0
  m_UsedByEffector: 0
  m_Offset: {x: 0, y: 0}
  serializedVersion: 2
  m_Size: {x: 1.7, y: 3}
--- !u!114 &11455220
MonoBehaviour:
  m_ObjectHideFlags: 1
  m_PrefabParentObject: {fileID: 0}
  m_PrefabInternal: {fileID: 100100000}
  m_GameObject: {fileID: 196694}
  m_Enabled: 1
  m_EditorHideFlags: 0
  m_Script: {fileID: 11500000, guid: 1408254799f1144f7b1f5fca4d51d07b, type: 3}
  m_Name: 
  m_EditorClassIdentifier: 
  MaxSpeed: 100
  sprintDuration: 0.5
  shakeDuration: 1
  scareRange: 15
  shakeForce: 50
  movingSprite: {fileID: 21300002, guid: 1160579b2a5c04285b85e649618a5163, type: 3}
--- !u!114 &11481124
MonoBehaviour:
  m_ObjectHideFlags: 1
  m_PrefabParentObject: {fileID: 0}
  m_PrefabInternal: {fileID: 100100000}
  m_GameObject: {fileID: 196694}
  m_Enabled: 1
  m_EditorHideFlags: 0
  m_Script: {fileID: 11500000, guid: 657fedb7251214d79ab46efd802ac7fe, type: 3}
  m_Name: 
  m_EditorClassIdentifier: 
  Health: 1
  Damage: 1
--- !u!212 &21256432
SpriteRenderer:
  m_ObjectHideFlags: 1
  m_PrefabParentObject: {fileID: 0}
  m_PrefabInternal: {fileID: 100100000}
  m_GameObject: {fileID: 196694}
  m_Enabled: 1
  m_CastShadows: 0
  m_ReceiveShadows: 0
  m_Materials:
  - {fileID: 10754, guid: 0000000000000000e000000000000000, type: 0}
  m_SubsetIndices: 
  m_StaticBatchRoot: {fileID: 0}
  m_UseLightProbes: 0
  m_ReflectionProbeUsage: 0
  m_ProbeAnchor: {fileID: 0}
  m_ScaleInLightmap: 1
  m_PreserveUVs: 0
  m_IgnoreNormalsForChartDetection: 0
  m_ImportantGI: 0
  m_MinimumChartSize: 4
  m_AutoUVMaxDistance: 0.5
  m_AutoUVMaxAngle: 89
  m_LightmapParameters: {fileID: 0}
  m_SortingLayerID: -1267354641
  m_SortingOrder: 0
  m_Sprite: {fileID: 21300004, guid: 1160579b2a5c04285b85e649618a5163, type: 3}
  m_Color: {r: 1, g: 1, b: 1, a: 1}
  m_FlipX: 0
  m_FlipY: 0
--- !u!1001 &100100000
Prefab:
  m_ObjectHideFlags: 1
  serializedVersion: 2
  m_Modification:
    m_TransformParent: {fileID: 0}
    m_Modifications:
    - target: {fileID: 0}
      propertyPath: MaxSpeed
      value: 100
      objectReference: {fileID: 0}
    - target: {fileID: 0}
      propertyPath: sprintDuration
      value: 0.5
      objectReference: {fileID: 0}
    - target: {fileID: 0}
      propertyPath: shakeDuration
      value: 1
      objectReference: {fileID: 0}
    - target: {fileID: 0}
      propertyPath: scareRange
      value: 15
      objectReference: {fileID: 0}
    - target: {fileID: 0}
      propertyPath: shakeForce
      value: 50
      objectReference: {fileID: 0}
    - target: {fileID: 0}
      propertyPath: m_Sprite
      value: 
      objectReference: {fileID: 21300004, guid: 1160579b2a5c04285b85e649618a5163,
        type: 3}
    - target: {fileID: 0}
      propertyPath: movingSprite
      value: 
      objectReference: {fileID: 21300002, guid: 1160579b2a5c04285b85e649618a5163,
        type: 3}
    - target: {fileID: 0}
      propertyPath: m_Size.x
      value: 1.7
      objectReference: {fileID: 0}
    - target: {fileID: 0}
      propertyPath: m_Size.y
      value: 3
      objectReference: {fileID: 0}
    - target: {fileID: 0}
      propertyPath: m_LocalScale.x
      value: 1.5
      objectReference: {fileID: 0}
    - target: {fileID: 0}
      propertyPath: m_LocalScale.y
      value: 1.5
      objectReference: {fileID: 0}
    - target: {fileID: 0}
      propertyPath: Health
      value: 1
      objectReference: {fileID: 0}
    - target: {fileID: 0}
      propertyPath: Damage
      value: 1
      objectReference: {fileID: 0}
    m_RemovedComponents: []
  m_ParentPrefab: {fileID: 0}
  m_RootGameObject: {fileID: 196694}
  m_IsPrefabParent: 1
